id,name,model_id:id,group_id:id,perm_read,perm_write,perm_create,perm_unlink
"access_ajuste_por_inf_indices","ajuste_por_inf.indices","model_ajuste_por_inf_indices","base.group_user",1,1,1,1
"access_ajuste_por_inf_cuentas","ajuste_por_inf.cuentas","model_ajuste_por_inf_cuentas","base.group_user",1,1,1,1
"access_account_ajuste_por_inf","account.ajuste_por_inf","model_account_ajuste_por_inf","base.group_user",1,1,1,1
"access_ajuste_por_inf_cuentas_reales","ajuste_por_inf.cuentas_reales","model_ajuste_por_inf_cuentas_reales","base.group_user",1,1,1,1
"access_ajuste_por_inf_saldo_cuenta","ajuste_por_inf.saldo_cuenta","model_ajuste_por_inf_saldo_cuenta","base.group_user",1,1,1,1
"access_ajuste_por_inf_conectar_db","ajuste_por_inf.conectar_db","model_ajuste_por_inf_conectar_db","base.group_user",1,1,1,1
