id,name,model_id:id,group_id:id,perm_read,perm_write,perm_create,perm_unlink
access_veoc_persona,veoc.persona,veoc.model_veoc_persona,,1,1,1,1
access_veoc_cliente,veoc.cliente,veoc.model_veoc_cliente,,1,1,1,1
access_veoc_localidad,veoc.localidad,veoc.model_veoc_localidad,,1,1,1,1
access_veoc_provincia,veoc.provincia,veoc.model_veoc_provincia,,1,1,1,1
access_veoc_tarjeta,veoc.tarjeta,veoc.model_veoc_tarjeta,,1,1,1,1
access_veoc_tipoevento,veoc.tipoevento,veoc.model_veoc_tipoevento,,1,1,1,1
access_veoc_evento,veoc.evento,veoc.model_veoc_evento,,1,1,1,1
access_veoc_sala,veoc.sala,veoc.model_veoc_sala,,1,1,1,1
access_veoc_butaca,veoc.butaca,model_veoc_butaca,,1,1,1,1
access_veoc_clasificacion,veoc.clasificacion,model_veoc_clasificacion,,1,1,1,1
access_veoc_precioevento,veoc.precioevento,model_veoc_precioevento,,1,1,1,1
access_veoc_funcion,veoc.funcion,model_veoc_funcion,,1,1,1,1
access_veoc_sector,veoc.sector,model_veoc_sector,,1,1,1,1
access_veoc_centrocultural,veoc.centrocultural,model_veoc_centrocultural,,1,1,1,1
access_veoc_entrada,veoc.entrada,model_veoc_entrada,,1,1,1,1
access_veoc_comprobante,veoc.comprobante,model_veoc_comprobante,,1,1,1,1